jId,opSeq,opId,st,et,dur,mid
0,0,0,52,54,2,10,
0,1,1,26,27,1,0,
0,2,2,32,35,3,32,
0,3,3,44,47,3,33,
0,4,4,63,64,1,0,
0,5,5,626,674,48,7,
0,6,6,107,108,1,0,
0,7,7,960,1080,120,44,
0,8,8,162,163,1,0,
0,9,9,163,164,1,13,
0,10,10,196,197,1,0,
0,11,11,600,624,24,8,
0,12,12,224,225,1,0,
0,13,13,58,59,1,38,
0,14,14,6840,6960,120,25,
0,15,15,6960,7080,120,25,
0,16,16,7080,7081,1,13,
0,17,17,249,250,1,0,
0,18,18,70,71,1,38,
0,19,19,258,259,1,0,
0,20,20,87,88,1,38,
0,21,21,18,19,1,9,
1,0,22,6,8,2,10,
1,1,23,13,14,1,0,
1,2,24,14,17,3,33,
1,3,25,38,41,3,32,
1,4,26,52,53,1,0,
1,5,27,434,482,48,7,
1,6,28,89,90,1,0,
1,7,29,840,960,120,44,
1,8,30,116,117,1,0,
1,9,31,216,240,24,8,
1,10,32,135,136,1,0,
1,11,33,20,21,1,38,
1,12,34,1920,2040,120,25,
1,13,35,2760,2880,120,25,
1,14,36,2880,2881,1,13,
1,15,37,199,200,1,0,
1,16,38,41,42,1,38,
1,17,39,218,219,1,0,
1,18,40,52,53,1,38,
1,19,41,8,9,1,9,
2,0,42,22,24,2,10,
2,1,43,18,19,1,0,
2,2,44,19,20,1,32,
2,3,45,20,23,3,32,
2,4,46,36,37,1,0,
2,5,47,146,194,48,7,
2,6,48,74,75,1,0,
2,7,49,75,76,1,32,
2,8,50,2,3,1,38,
2,9,51,480,600,120,25,
2,10,52,108,109,1,0,
2,11,53,168,192,24,8,
2,12,54,154,155,1,0,
2,13,55,3120,3240,120,25,
2,14,56,3240,3241,1,2,
2,15,57,170,171,1,0,
2,16,58,34,35,1,38,
2,17,59,207,208,1,0,
2,18,60,59,60,1,38,
2,19,61,7,8,1,9,
3,0,62,14,16,2,10,
3,1,63,0,1,1,0,
3,2,64,1,4,3,13,
3,3,65,4,7,3,2,
3,4,66,20,23,3,33,
3,5,67,32,33,1,0,
3,6,68,1348,1396,48,7,
3,7,69,141,142,1,0,
3,8,70,142,143,1,2,
3,9,71,152,153,1,0,
3,10,72,1080,1200,120,44,
3,11,73,168,169,1,0,
3,12,74,360,384,24,8,
3,13,75,211,212,1,0,
3,14,76,53,54,1,38,
3,15,77,6360,6480,120,25,
3,16,78,6480,6481,1,2,
3,17,79,296,297,1,0,
3,18,80,111,112,1,38,
3,19,81,299,300,1,0,
3,20,82,118,119,1,38,
3,21,83,39,40,1,9,
4,0,84,2,4,2,10,
4,1,85,8,9,1,0,
4,2,86,9,12,3,32,
4,3,87,14,15,1,4,
4,4,88,15,18,3,32,
4,5,89,33,34,1,0,
4,6,90,48,50,2,7,
4,7,91,38,39,1,0,
4,8,92,39,40,1,2,
4,9,93,1,2,1,38,
4,10,94,120,240,120,25,
4,11,95,84,85,1,0,
4,12,96,72,96,24,8,
4,13,97,99,100,1,0,
4,14,98,600,720,120,25,
4,15,99,720,721,1,2,
4,16,100,120,121,1,0,
4,17,101,18,19,1,38,
4,18,102,159,160,1,0,
4,19,103,39,40,1,38,
4,20,104,1,2,1,9,
5,0,105,76,78,2,10,
5,1,106,78,79,1,42,
5,2,107,79,80,1,27,
5,3,108,72,73,1,0,
5,4,109,73,74,1,42,
5,5,110,75,76,1,0,
5,6,111,76,77,1,42,
5,7,112,77,78,1,40,
5,8,113,125,126,1,0,
5,9,114,47,71,24,4,
5,10,115,1492,1540,48,7,
5,11,116,155,156,1,0,
5,12,117,156,161,5,42,
5,13,118,24,25,1,38,
5,14,119,1828,1876,48,7,
5,15,120,3600,3720,120,25,
5,16,121,184,185,1,0,
5,17,122,480,504,24,8,
5,18,123,193,194,1,0,
5,19,124,4800,4920,120,25,
5,20,125,0,48,48,5,
5,21,126,50,51,1,2,
5,22,127,225,226,1,0,
5,23,128,61,62,1,38,
5,24,129,257,258,1,0,
5,25,130,103,104,1,38,
5,26,131,23,24,1,9,
6,0,132,40,42,2,10,
6,1,133,2,4,2,4,
6,2,134,4,5,1,42,
6,3,135,5,6,1,42,
6,4,136,31,32,1,0,
6,5,137,98,146,48,7,
6,6,138,44,45,1,0,
6,7,139,45,50,5,42,
6,8,140,96,96,0,0,
6,9,141,8,10,2,38,
6,10,142,1444,1492,48,7,
6,11,143,3000,3120,120,25,
6,12,144,183,184,1,0,
6,13,145,528,552,24,8,
6,14,146,232,233,1,0,
6,15,147,6720,6840,120,25,
6,16,148,6840,6841,1,2,
6,17,149,251,252,1,0,
6,18,150,79,80,1,38,
6,19,151,273,274,1,0,
6,20,152,100,101,1,38,
6,21,153,30,31,1,9,
7,0,154,46,48,2,10,
7,1,155,7,8,1,0,
7,2,156,10,12,2,4,
7,3,157,18,21,3,13,
7,4,158,38,41,3,33,
7,5,159,41,44,3,13,
7,6,160,57,58,1,0,
7,7,161,338,386,48,7,
7,8,162,73,74,1,0,
7,9,163,74,75,1,2,
7,10,164,4,5,1,38,
7,11,165,240,360,120,25,
7,12,166,110,111,1,0,
7,13,167,192,216,24,8,
7,14,168,119,120,1,0,
7,15,169,1080,1200,120,25,
7,16,170,1200,1201,1,2,
7,17,171,140,141,1,0,
7,18,172,35,36,1,38,
7,19,173,189,190,1,0,
7,20,174,38,39,1,38,
7,21,175,6,7,1,9,
8,0,176,8,10,2,10,
8,1,177,15,16,1,0,
8,2,178,12,14,2,4,
8,3,179,15,18,3,13,
8,4,180,35,38,3,33,
8,5,181,38,41,3,3,
8,6,182,69,70,1,0,
8,7,183,674,722,48,7,
8,8,184,105,106,1,0,
8,9,185,106,107,1,2,
8,10,186,22,23,1,38,
8,11,187,2280,2400,120,25,
8,12,188,169,170,1,0,
8,13,189,336,360,24,8,
8,14,190,172,173,1,0,
8,15,191,4200,4320,120,25,
8,16,192,4320,4321,1,2,
8,17,193,233,234,1,0,
8,18,194,68,69,1,38,
8,19,195,254,255,1,0,
8,20,196,78,79,1,38,
8,21,197,15,16,1,9,
9,0,198,78,80,2,10,
9,1,199,90,91,1,0,
9,2,200,45,47,2,4,
9,3,201,47,50,3,2,
9,4,202,50,53,3,33,
9,5,203,55,58,3,3,
9,6,204,136,137,1,0,
9,7,205,1540,1588,48,7,
9,8,206,143,144,1,0,
9,9,207,144,145,1,2,
9,10,208,27,28,1,38,
9,11,209,4080,4200,120,25,
9,12,210,185,186,1,0,
9,13,211,504,528,24,8,
9,14,212,202,203,1,0,
9,15,213,5040,5160,120,25,
9,16,214,5160,5161,1,2,
9,17,215,248,249,1,0,
9,18,216,83,84,1,38,
9,19,217,277,278,1,0,
9,20,218,95,96,1,38,
9,21,219,22,23,1,9,
10,0,220,82,84,2,10,
10,1,221,54,55,1,0,
10,2,222,38,40,2,4,
10,3,223,41,44,3,2,
10,4,224,47,50,3,33,
10,5,225,54,57,3,2,
10,6,226,142,143,1,0,
10,7,227,1732,1780,48,7,
10,8,228,197,198,1,0,
10,9,229,198,199,1,2,
10,10,230,48,49,1,38,
10,11,231,7080,7200,120,25,
10,12,232,266,267,1,0,
10,13,233,768,792,24,8,
10,14,234,268,269,1,0,
10,15,235,8280,8400,120,25,
10,16,236,8400,8401,1,2,
10,17,237,287,288,1,0,
10,18,238,108,109,1,38,
10,19,239,297,298,1,0,
10,20,240,112,113,1,38,
10,21,241,34,35,1,9,
11,0,242,68,70,2,10,
11,1,243,28,29,1,0,
11,2,244,21,23,2,4,
11,3,245,24,27,3,14,
11,4,246,35,38,3,32,
11,5,247,38,41,3,13,
11,6,248,64,65,1,0,
11,7,249,770,818,48,7,
11,8,250,94,95,1,0,
11,9,251,95,96,1,13,
11,10,252,19,20,1,38,
11,11,253,2640,2760,120,25,
11,12,254,175,176,1,0,
11,13,255,456,480,24,8,
11,14,256,205,206,1,0,
11,15,257,5640,5760,120,25,
11,16,258,5760,5761,1,2,
11,17,259,246,247,1,0,
11,18,260,81,82,1,38,
11,19,261,275,276,1,0,
11,20,262,102,103,1,38,
11,21,263,28,29,1,9,
12,0,264,30,32,2,10,
12,1,265,12,13,1,0,
12,2,266,13,15,2,14,
12,3,267,31,34,3,14,
12,4,268,34,37,3,3,
12,5,269,52,55,3,14,
12,6,270,115,116,1,0,
12,7,271,1684,1732,48,7,
12,8,272,156,157,1,0,
12,9,273,157,158,1,13,
12,10,274,69,70,1,38,
12,11,275,8040,8160,120,25,
12,12,276,279,280,1,0,
12,13,277,840,864,24,8,
12,14,278,284,285,1,0,
12,15,279,9240,9360,120,25,
12,16,280,48,96,48,5,
12,17,281,96,97,1,32,
12,18,282,303,304,1,0,
12,19,283,122,123,1,38,
12,20,284,307,308,1,0,
12,21,285,124,125,1,38,
12,22,286,41,42,1,9,
13,0,287,10,12,2,10,
13,1,288,2,3,1,0,
13,2,289,4,6,2,4,
13,3,290,10,13,3,14,
13,4,291,13,16,3,3,
13,5,292,35,38,3,13,
13,6,293,106,107,1,0,
13,7,294,1300,1348,48,7,
13,8,295,133,134,1,0,
13,9,296,134,135,1,13,
13,10,297,25,26,1,38,
13,11,298,3840,3960,120,25,
13,12,299,200,201,1,0,
13,13,300,720,744,24,8,
13,14,301,252,253,1,0,
13,15,302,8400,8520,120,25,
13,16,303,8520,8521,1,13,
13,17,304,281,282,1,0,
13,18,305,93,94,1,38,
13,19,306,295,296,1,0,
13,20,307,113,114,1,38,
13,21,308,32,33,1,9,
14,0,309,54,56,2,10,
14,1,310,23,24,1,0,
14,2,311,26,29,3,13,
14,3,312,29,32,3,3,
14,4,313,40,43,3,14,
14,5,314,82,83,1,0,
14,6,315,818,866,48,7,
14,7,316,92,93,1,0,
14,8,317,93,94,1,2,
14,9,318,26,27,1,38,
14,10,319,3480,3600,120,25,
14,11,320,181,182,1,0,
14,12,321,624,648,24,8,
14,13,322,222,223,1,0,
14,14,323,6600,6720,120,25,
14,15,324,6720,6721,1,2,
14,16,325,255,256,1,0,
14,17,326,86,87,1,38,
14,18,327,278,279,1,0,
14,19,328,99,100,1,38,
14,20,329,26,27,1,9,
15,0,330,42,44,2,10,
15,1,331,16,17,1,0,
15,2,332,17,20,3,33,
15,3,333,15,17,2,4,
15,4,334,29,32,3,33,
15,5,335,41,42,1,0,
15,6,336,482,530,48,7,
15,7,337,112,113,1,0,
15,8,338,113,114,1,2,
15,9,339,17,18,1,38,
15,10,340,1800,1920,120,25,
15,11,341,163,164,1,0,
15,12,342,408,432,24,8,
15,13,343,179,180,1,0,
15,14,344,4320,4440,120,25,
15,15,345,4440,4441,1,2,
15,16,346,242,243,1,0,
15,17,347,74,75,1,38,
15,18,348,262,263,1,0,
15,19,349,80,81,1,38,
15,20,350,17,18,1,9,
16,0,351,48,50,2,10,
16,1,352,30,31,1,0,
16,2,353,26,28,2,4,
16,3,354,28,31,3,14,
16,4,355,31,34,3,2,
16,5,356,51,54,3,13,
16,6,357,114,115,1,0,
16,7,358,1204,1252,48,7,
16,8,359,130,131,1,0,
16,9,360,131,132,1,32,
16,10,361,15,16,1,38,
16,11,362,1680,1800,120,25,
16,12,363,144,145,1,0,
16,13,364,264,288,24,8,
16,14,365,208,209,1,0,
16,15,366,5880,6000,120,25,
16,16,367,6000,6001,1,32,
16,17,368,231,232,1,0,
16,18,369,67,68,1,38,
16,19,370,247,248,1,0,
16,20,371,75,76,1,38,
16,21,372,13,14,1,9,
17,0,373,0,2,2,10,
17,1,374,1,2,1,0,
17,2,375,0,2,2,4,
17,3,376,2,5,3,14,
17,4,377,5,8,3,3,
17,5,378,34,37,3,14,
17,6,379,41,44,3,3,
17,7,380,91,92,1,0,
17,8,381,1012,1060,48,7,
17,9,382,100,101,1,0,
17,10,383,101,102,1,2,
17,11,384,11,12,1,38,
17,12,385,2400,2520,120,25,
17,13,386,158,159,1,0,
17,14,387,384,408,24,8,
17,15,388,176,177,1,0,
17,16,389,4440,4560,120,25,
17,17,390,4560,4561,1,2,
17,18,391,198,199,1,0,
17,19,392,42,43,1,38,
17,20,393,210,211,1,0,
17,21,394,47,48,1,38,
17,22,395,4,5,1,9,
18,0,396,56,58,2,10,
18,1,397,48,49,1,0,
18,2,398,49,52,3,14,
18,3,399,52,55,3,3,
18,4,400,55,58,3,13,
18,5,401,79,80,1,0,
18,6,402,722,770,48,7,
18,7,403,95,96,1,0,
18,8,404,96,97,1,2,
18,9,405,7,8,1,38,
18,10,406,840,960,120,25,
18,11,407,171,172,1,0,
18,12,408,432,456,24,8,
18,13,409,180,181,1,0,
18,14,410,4560,4680,120,25,
18,15,411,4680,4681,1,2,
18,16,412,220,221,1,0,
18,17,413,57,58,1,38,
18,18,414,238,239,1,0,
18,19,415,77,78,1,38,
18,20,416,16,17,1,9,
19,0,417,74,76,2,10,
19,1,418,29,30,1,0,
19,2,419,28,30,2,4,
19,3,420,44,47,3,13,
19,4,421,47,50,3,3,
19,5,422,50,53,3,32,
19,6,423,127,128,1,0,
19,7,424,1588,1636,48,7,
19,8,425,149,150,1,0,
19,9,426,150,151,1,2,
19,10,427,30,31,1,38,
19,11,428,3960,4080,120,25,
19,12,429,178,179,1,0,
19,13,430,552,576,24,8,
19,14,431,213,214,1,0,
19,15,432,5400,5520,120,25,
19,16,433,5520,5521,1,2,
19,17,434,259,260,1,0,
19,18,435,82,83,1,38,
19,19,436,264,265,1,0,
19,20,437,105,106,1,38,
19,21,438,27,28,1,9,
20,0,439,50,52,2,10,
20,1,440,11,12,1,0,
20,2,441,18,21,3,14,
20,3,442,21,24,3,14,
20,4,443,43,46,3,14,
20,5,444,46,49,3,14,
20,6,445,55,58,3,14,
20,7,446,123,124,1,0,
20,8,447,124,125,1,27,
20,9,448,157,158,1,0,
20,10,449,1780,1828,48,7,
20,11,450,1828,1829,1,13,
20,12,451,186,187,1,0,
20,13,452,36,37,1,38,
20,14,453,5520,5640,120,25,
20,15,454,219,220,1,0,
20,16,455,79,81,2,4,
20,17,456,223,224,1,0,
20,18,457,6000,6120,120,25,
20,19,458,6120,6121,1,13,
20,20,459,243,244,1,0,
20,21,460,96,97,1,38,
20,22,461,290,291,1,0,
20,23,462,101,102,1,38,
20,24,463,21,22,1,9,
21,0,464,66,68,2,10,
21,1,465,21,22,1,0,
21,2,466,22,25,3,2,
21,3,467,25,28,3,2,
21,4,468,44,47,3,32,
21,5,469,56,57,1,0,
21,6,470,578,626,48,7,
21,7,471,626,627,1,2,
21,8,472,80,81,1,0,
21,9,473,600,720,120,44,
21,10,474,144,168,24,8,
21,11,475,126,127,1,0,
21,12,476,12,13,1,38,
21,13,477,1320,1440,120,25,
21,14,478,1440,1560,120,25,
21,15,479,1560,1561,1,2,
21,16,480,151,152,1,0,
21,17,481,23,24,1,38,
21,18,482,182,183,1,0,
21,19,483,44,45,1,38,
21,20,484,2,3,1,9,
22,0,485,64,66,2,10,
22,1,486,20,21,1,0,
22,2,487,23,26,3,32,
22,3,488,26,29,3,32,
22,4,489,29,32,3,32,
22,5,490,45,46,1,0,
22,6,491,242,290,48,7,
22,7,492,290,291,1,2,
22,8,493,360,480,120,44,
22,9,494,118,119,1,0,
22,10,495,312,336,24,8,
22,11,496,192,193,1,0,
22,12,497,49,50,1,38,
22,13,498,7440,7560,120,25,
22,14,499,7800,7920,120,25,
22,15,500,7920,7921,1,2,
22,16,501,260,261,1,0,
22,17,502,89,90,1,38,
22,18,503,274,275,1,0,
22,19,504,92,93,1,38,
22,20,505,20,21,1,9,
23,0,506,24,26,2,10,
23,1,507,3,4,1,0,
23,2,508,4,7,3,32,
23,3,509,26,29,3,33,
23,4,510,49,50,1,0,
23,5,511,386,434,48,7,
23,6,512,434,435,1,2,
23,7,513,68,69,1,0,
23,8,514,120,240,120,44,
23,9,515,77,78,1,0,
23,10,516,48,72,24,8,
23,11,517,117,118,1,0,
23,12,518,13,14,1,38,
23,13,519,1200,1320,120,25,
23,14,520,2040,2160,120,25,
23,15,521,2160,2161,1,2,
23,16,522,174,175,1,0,
23,17,523,32,33,1,38,
23,18,524,203,204,1,0,
23,19,525,45,46,1,38,
23,20,526,3,4,1,9,
24,0,527,38,40,2,10,
24,1,528,9,10,1,0,
24,2,529,12,15,3,32,
24,3,530,41,44,3,32,
24,4,531,85,86,1,0,
24,5,532,1010,1012,2,7,
24,6,533,1012,1013,1,2,
24,7,534,720,840,120,44,
24,8,535,103,104,1,0,
24,9,536,120,144,24,8,
24,10,537,121,122,1,0,
24,11,538,10,11,1,38,
24,12,539,3360,3480,120,25,
24,13,540,3720,3840,120,25,
24,14,541,3840,3841,1,2,
24,15,542,209,210,1,0,
24,16,543,50,51,1,38,
24,17,544,228,229,1,0,
24,18,545,54,55,1,38,
24,19,546,12,13,1,9,
25,0,547,60,62,2,10,
25,1,548,24,25,1,0,
25,2,549,32,35,3,13,
25,3,550,35,38,3,2,
25,4,551,47,50,3,32,
25,5,552,76,77,1,0,
25,6,553,77,78,1,27,
25,7,554,87,88,1,0,
25,8,555,866,914,48,7,
25,9,556,914,915,1,2,
25,10,557,480,600,120,44,
25,11,558,109,110,1,0,
25,12,559,146,147,1,0,
25,13,560,288,312,24,8,
25,14,561,194,195,1,0,
25,15,562,43,44,1,38,
25,16,563,5760,5880,120,25,
25,17,564,6120,6240,120,25,
25,18,565,6240,6241,1,2,
25,19,566,241,242,1,0,
25,20,567,72,73,1,38,
25,21,568,261,262,1,0,
25,22,569,88,89,1,38,
25,23,570,19,20,1,9,
26,0,571,36,38,2,10,
26,1,572,5,6,1,0,
26,2,573,6,9,3,13,
26,3,574,9,12,3,33,
26,4,575,15,18,3,14,
26,5,576,27,28,1,0,
26,6,577,28,29,1,27,
26,7,578,40,41,1,0,
26,8,579,530,578,48,7,
26,9,580,578,579,1,2,
26,10,581,240,360,120,44,
26,11,582,81,82,1,0,
26,12,583,24,48,24,8,
26,13,584,102,103,1,0,
26,14,585,16,17,1,38,
26,15,586,4920,5040,120,25,
26,16,587,5280,5400,120,25,
26,17,588,5400,5401,1,2,
26,18,589,230,231,1,0,
26,19,590,55,56,1,38,
26,20,591,237,238,1,0,
26,21,592,65,66,1,38,
26,22,593,11,12,1,9,
27,0,594,80,82,2,10,
27,1,595,47,48,1,0,
27,2,596,48,51,3,13,
27,3,597,51,54,3,2,
27,4,598,54,57,3,32,
27,5,599,57,60,3,32,
27,6,600,113,114,1,0,
27,7,601,114,115,1,27,
27,8,602,128,129,1,0,
27,9,603,1252,1300,48,7,
27,10,604,1300,1301,1,2,
27,11,605,1200,1320,120,44,
27,12,606,214,215,1,0,
27,13,607,216,217,1,0,
27,14,608,696,720,24,8,
27,15,609,269,270,1,0,
27,16,610,85,86,1,38,
27,17,611,8760,8880,120,25,
27,18,612,9000,9120,120,25,
27,19,613,9120,9121,1,2,
27,20,614,294,295,1,0,
27,21,615,110,111,1,38,
27,22,616,300,301,1,0,
27,23,617,116,117,1,38,
27,24,618,33,34,1,9,
28,0,619,70,72,2,10,
28,1,620,22,23,1,0,
28,2,621,23,26,3,13,
28,3,622,32,35,3,33,
28,4,623,37,40,3,14,
28,5,624,96,97,1,0,
28,6,625,1108,1156,48,7,
28,7,626,1156,1157,1,2,
28,8,627,138,139,1,0,
28,9,628,166,167,1,0,
28,10,629,77,79,2,4,
28,11,630,212,213,1,0,
28,12,631,648,672,24,8,
28,13,632,236,237,1,0,
28,14,633,60,61,1,38,
28,15,634,7200,7320,120,25,
28,16,635,7320,7440,120,25,
28,17,636,7440,7441,1,2,
28,18,637,271,272,1,0,
28,19,638,90,91,1,38,
28,20,639,280,281,1,0,
28,21,640,94,95,1,38,
28,22,641,35,36,1,9,
29,0,642,26,28,2,10,
29,1,643,6,7,1,0,
29,2,644,7,10,3,14,
29,3,645,10,13,3,2,
29,4,646,23,26,3,33,
29,5,647,35,36,1,0,
29,6,648,36,37,1,27,
29,7,649,43,44,1,0,
29,8,650,194,242,48,7,
29,9,651,242,243,1,2,
29,10,652,65,66,1,0,
29,11,653,0,120,120,44,
29,12,654,0,24,24,8,
29,13,655,3,4,1,38,
29,14,656,360,480,120,25,
29,15,657,720,840,120,25,
29,16,658,840,841,1,2,
29,17,659,177,178,1,0,
29,18,660,40,41,1,38,
29,19,661,204,205,1,0,
29,20,662,46,47,1,38,
29,21,663,5,6,1,9,
30,0,664,72,74,2,10,
30,1,665,74,75,1,13,
30,2,666,34,35,1,0,
30,3,667,35,36,1,45,
30,4,668,51,52,1,0,
30,5,669,52,53,1,45,
30,6,670,53,54,1,45,
30,7,671,97,98,1,0,
30,8,672,71,74,3,4,
30,9,673,0,2,2,26,
30,10,674,4,6,2,13,
30,11,675,58,60,2,13,
30,12,676,244,245,1,0,
30,13,677,245,246,1,45,
30,14,678,246,247,1,45,
30,15,679,276,277,1,0,
30,16,680,91,92,1,38,
30,17,681,8640,8760,120,25,
30,18,682,282,283,1,0,
30,19,683,97,98,1,38,
30,20,684,292,293,1,0,
30,21,685,109,110,1,38,
30,22,686,25,26,1,9,
31,0,687,16,18,2,10,
31,1,688,4,5,1,0,
31,2,689,8,10,2,4,
31,3,690,10,13,3,13,
31,4,691,13,16,3,2,
31,5,692,41,44,3,33,
31,6,693,66,67,1,0,
31,7,694,962,1010,48,7,
31,8,695,93,94,1,0,
31,9,696,94,95,1,2,
31,10,697,6,7,1,38,
31,11,698,960,1080,120,25,
31,12,699,129,130,1,0,
31,13,700,240,264,24,8,
31,14,701,134,135,1,0,
31,15,702,1560,1680,120,25,
31,16,703,1680,1681,1,2,
31,17,704,153,154,1,0,
31,18,705,31,32,1,38,
31,19,706,206,207,1,0,
31,20,707,66,67,1,38,
31,21,708,10,11,1,9,
32,0,709,28,30,2,10,
32,1,710,30,31,1,13,
32,2,711,31,32,1,13,
32,3,712,23,26,3,4,
32,4,713,50,98,48,7,
32,5,714,98,99,1,13,
32,6,715,58,62,4,0,
32,7,716,62,63,1,37,
32,8,717,67,68,1,0,
32,9,718,68,70,2,27,
32,10,719,70,71,1,39,
32,11,720,104,105,1,0,
32,12,721,14,15,1,38,
32,13,722,1396,1444,48,7,
32,14,723,2880,3000,120,25,
32,15,724,173,174,1,0,
32,16,725,74,77,3,4,
32,17,726,201,202,1,0,
32,18,727,5160,5280,120,25,
32,19,728,215,216,1,0,
32,20,729,56,57,1,38,
32,21,730,234,235,1,0,
32,22,731,63,64,1,38,
32,23,732,9,10,1,9,
33,0,733,4,6,2,10,
33,1,734,6,7,1,16,
33,2,735,7,8,1,34,
33,3,736,62,63,1,0,
33,4,737,70,71,1,0,
33,5,738,40,43,3,4,
33,6,739,914,962,48,7,
33,7,740,962,963,1,17,
33,8,741,164,165,1,0,
33,9,742,28,29,1,38,
33,10,743,1924,1972,48,7,
33,11,744,7560,7680,120,25,
33,12,745,270,271,1,0,
33,13,746,792,816,24,8,
33,14,747,301,302,1,0,
33,15,748,9360,9480,120,25,
33,16,749,302,303,1,0,
33,17,750,120,121,1,38,
33,18,751,305,306,1,0,
33,19,752,121,122,1,38,
33,20,753,38,39,1,9,
34,0,754,44,46,2,10,
34,1,755,46,73,27,16,
34,2,756,6,8,2,4,
34,3,757,8,11,3,16,
34,4,758,17,18,1,0,
34,5,759,18,19,1,34,
34,6,760,19,20,1,0,
34,7,761,0,48,48,7,
34,8,762,25,26,1,0,
34,9,763,0,1,1,38,
34,10,764,0,120,120,25,
34,11,765,83,84,1,0,
34,12,766,96,120,24,8,
34,13,767,161,162,1,0,
34,14,768,3240,3360,120,25,
34,15,769,3360,3361,1,39,
34,16,770,165,166,1,0,
34,17,771,33,34,1,38,
34,18,772,188,189,1,0,
34,19,773,37,38,1,38,
34,20,774,0,1,1,9,
35,0,775,58,60,2,10,
35,1,776,60,61,1,13,
35,2,777,61,63,2,1,
35,3,778,50,51,1,0,
35,4,779,34,36,2,4,
35,5,780,36,37,1,11,
35,6,781,86,87,1,0,
35,7,782,87,88,1,12,
35,8,783,132,133,1,0,
35,9,784,133,134,1,11,
35,10,785,134,135,1,11,
35,11,786,139,140,1,0,
35,12,787,160,161,1,0,
35,13,788,1876,1924,48,7,
35,14,789,1924,1925,1,39,
35,15,790,240,241,1,0,
35,16,791,71,72,1,38,
35,17,792,2212,2260,48,7,
35,18,793,8160,8280,120,25,
35,19,794,267,268,1,0,
35,20,795,816,840,24,8,
35,21,796,289,290,1,0,
35,22,797,9120,9240,120,25,
35,23,798,293,294,1,0,
35,24,799,119,120,1,38,
35,25,800,306,307,1,0,
35,26,801,123,124,1,38,
35,27,802,40,41,1,9,
36,0,803,12,14,2,10,
36,1,804,14,15,1,13,
36,2,805,15,17,2,1,
36,3,806,37,38,1,0,
36,4,807,32,34,2,4,
36,5,808,34,35,1,11,
36,6,809,88,89,1,0,
36,7,810,89,90,1,12,
36,8,811,145,146,1,0,
36,9,812,146,147,1,11,
36,10,813,147,147,0,11,
36,11,814,187,188,1,0,
36,12,815,190,191,1,0,
36,13,816,2020,2068,48,7,
36,14,817,2068,2069,1,39,
36,15,818,226,227,1,0,
36,16,819,51,52,1,38,
36,17,820,2116,2164,48,7,
36,18,821,6240,6360,120,25,
36,19,822,253,254,1,0,
36,20,823,744,768,24,8,
36,21,824,272,273,1,0,
36,22,825,8520,8640,120,25,
36,23,826,285,286,1,0,
36,24,827,106,107,1,38,
36,25,828,298,299,1,0,
36,26,829,114,115,1,38,
36,27,830,31,32,1,9,
37,0,831,20,22,2,10,
37,1,832,22,23,1,42,
37,2,833,23,24,1,42,
37,3,834,17,19,2,4,
37,4,835,21,23,2,13,
37,5,836,27,28,1,14,
37,6,837,29,30,1,13,
37,7,838,30,31,1,27,
37,8,839,124,125,1,0,
37,9,840,125,126,1,27,
37,10,841,167,168,1,0,
37,11,842,2068,2116,48,7,
37,12,843,2116,2117,1,42,
37,13,844,2117,2118,1,15,
37,14,845,227,228,1,0,
37,15,846,235,236,1,0,
37,16,847,62,63,1,38,
37,17,848,2164,2212,48,7,
37,18,849,7680,7800,120,25,
37,19,850,8880,9000,120,25,
37,20,851,286,287,1,0,
37,21,852,115,116,1,38,
37,22,853,304,305,1,0,
37,23,854,37,38,1,9,
38,0,855,18,20,2,10,
38,1,856,20,21,1,17,
38,2,857,10,11,1,0,
38,3,858,19,21,2,4,
38,4,859,21,22,1,1,
38,5,860,22,23,1,1,
38,6,861,42,43,1,0,
38,7,862,43,44,1,40,
38,8,863,44,45,1,42,
38,9,864,45,46,1,43,
38,10,865,111,112,1,0,
38,11,866,1156,1204,48,7,
38,12,867,131,132,1,0,
38,13,868,21,22,1,38,
38,14,869,2520,2640,120,25,
38,15,870,2640,2641,1,42,
38,16,871,2641,2642,1,42,
38,17,872,195,196,1,0,
38,18,873,73,74,1,38,
38,19,874,265,266,1,0,
38,20,875,117,118,1,38,
38,21,876,36,37,1,9,
39,0,877,62,64,2,10,
39,1,878,64,66,2,17,
39,2,879,66,68,2,17,
39,3,880,68,69,1,2,
39,4,881,53,54,1,0,
39,5,882,43,45,2,4,
39,6,883,1060,1108,48,7,
39,7,884,122,123,1,0,
39,8,885,123,124,1,42,
39,9,886,124,125,1,11,
39,10,887,148,149,1,0,
39,11,888,29,30,1,38,
39,12,889,1972,2020,48,7,
39,13,890,4680,4800,120,25,
39,14,891,229,230,1,0,
39,15,892,672,696,24,8,
39,16,893,256,257,1,0,
39,17,894,7920,8040,120,25,
39,18,895,288,289,1,0,
39,19,896,98,99,1,38,
39,20,897,291,292,1,0,
39,21,898,107,108,1,38,
39,22,899,24,25,1,9,
40,0,900,34,36,2,10,
40,1,901,36,38,2,17,
40,2,902,38,40,2,17,
40,3,903,40,41,1,2,
40,4,904,39,40,1,0,
40,5,905,36,38,2,4,
40,6,906,290,338,48,7,
40,7,907,78,79,1,0,
40,8,908,79,80,1,42,
40,9,909,80,81,1,11,
40,10,910,101,102,1,0,
40,11,911,5,6,1,38,
40,12,912,1636,1684,48,7,
40,13,913,2160,2280,120,25,
40,14,914,150,151,1,0,
40,15,915,576,600,24,8,
40,16,916,217,218,1,0,
40,17,917,6480,6600,120,25,
40,18,918,239,240,1,0,
40,19,919,64,65,1,38,
40,20,920,245,246,1,0,
40,21,921,76,77,1,38,
40,22,922,14,15,1,9,
41,0,923,32,34,2,10,
41,1,924,34,36,2,34,
41,2,925,14,15,1,0,
41,3,926,15,17,2,34,
41,4,927,30,32,2,4,
41,5,928,46,47,1,0,
41,6,929,47,48,1,34,
41,7,930,55,56,1,0,
41,8,931,56,57,1,12,
41,9,932,57,58,1,12,
41,10,933,71,72,1,0,
41,11,934,72,73,1,11,
41,12,935,98,99,1,0,
41,13,936,99,100,1,11,
41,14,937,137,138,1,0,
41,15,938,147,148,1,0,
41,16,939,148,149,1,11,
41,17,940,191,192,1,0,
41,18,941,192,193,1,11,
41,19,942,221,222,1,0,
41,20,943,222,223,1,11,
41,21,944,250,251,1,0,
41,22,945,251,252,1,11,
41,23,946,263,264,1,0,
41,24,947,84,85,1,38,
41,25,948,2260,2308,48,7,
41,26,949,283,284,1,0,
41,27,950,104,105,1,38,
41,28,951,29,30,1,9,
